This is BibTeX, Version 0.99dThe top-level auxiliary file: Praca.aux
The style file: plain.bst
Database file #1: bibliografia.bib
Warning--entry type for "Python" isn't style-file defined
--line 83 of file bibliografia.bib
Warning--entry type for "igraph" isn't style-file defined
--line 89 of file bibliografia.bib
Warning--entry type for "flask" isn't style-file defined
--line 95 of file bibliografia.bib
Warning--entry type for "swagger" isn't style-file defined
--line 101 of file bibliografia.bib
Warning--entry type for "Flasgger" isn't style-file defined
--line 107 of file bibliografia.bib
Warning--I didn't find a database entry for "BasicGraphTheory"
Warning--I didn't find a database entry for "Clustering"
Warning--I didn't find a database entry for "REST"
Warning--I didn't find a database entry for "Patterns"
Warning--to sort, need author or key in Python
Warning--to sort, need author or key in igraph
Warning--to sort, need author or key in flask
Warning--to sort, need author or key in swagger
Warning--to sort, need author or key in Flasgger
Warning--empty title in Review
Warning--empty journal in Review
Warning--empty year in Review
(There were 17 warnings)
